<?xml version="1.0" encoding="utf-8"?>
<!-- Generator: Adobe Illustrator 26.0.3, SVG Export Plug-In . SVG Version: 6.00 Build 0)  -->
<svg version="1.1" id="Calque_1" xmlns="http://www.w3.org/2000/svg" xmlns:xlink="http://www.w3.org/1999/xlink" x="0px" y="0px"
	 viewBox="0 0 24 24" enable-background="new 0 0 24 24" xml:space="preserve">
<g>
	<defs>
		<rect id="SVGID_1_" x="3" y="3" width="18.3" height="18.3"/>
	</defs>
	<clipPath id="SVGID_00000174594236237096296470000016853037547903088789_">
		<use xlink:href="#SVGID_1_"  overflow="visible"/>
	</clipPath>
	<g clip-path="url(#SVGID_00000174594236237096296470000016853037547903088789_)">
		<path fill="#767486" d="M18.8,8.8h-7.5c-0.7,0-1.3,0.3-1.8,0.7c-0.5,0.5-0.7,1.1-0.7,1.8v7.5c0,0.7,0.3,1.3,0.7,1.8
			c0.5,0.5,1.1,0.7,1.8,0.7h7.5c0.7,0,1.3-0.3,1.8-0.7c0.5-0.5,0.7-1.1,0.7-1.8v-7.5c0-0.7-0.3-1.3-0.7-1.8
			C20.1,9.1,19.5,8.8,18.8,8.8z M19.7,18.8c0,0.2-0.1,0.4-0.2,0.6c-0.2,0.2-0.4,0.2-0.6,0.2h-7.5c-0.2,0-0.4-0.1-0.6-0.2
			c-0.2-0.2-0.2-0.4-0.2-0.6v-7.5c0-0.2,0.1-0.4,0.2-0.6c0.2-0.2,0.4-0.2,0.6-0.2h7.5c0.2,0,0.4,0.1,0.6,0.2
			c0.2,0.2,0.2,0.4,0.2,0.6V18.8z"/>
		<path fill="#767486" d="M6.3,13.8H5.5c-0.2,0-0.4-0.1-0.6-0.2c-0.2-0.2-0.2-0.4-0.2-0.6V5.5c0-0.2,0.1-0.4,0.2-0.6
			c0.2-0.2,0.4-0.2,0.6-0.2H13c0.2,0,0.4,0.1,0.6,0.2c0.2,0.2,0.2,0.4,0.2,0.6v0.8c0,0.2,0.1,0.4,0.2,0.6c0.2,0.2,0.4,0.2,0.6,0.2
			c0.2,0,0.4-0.1,0.6-0.2c0.2-0.2,0.2-0.4,0.2-0.6V5.5c0-0.3-0.1-0.7-0.2-1C15.2,4.2,15,4,14.8,3.7c-0.2-0.2-0.5-0.4-0.8-0.5
			S13.3,3,13,3H5.5C4.8,3,4.2,3.3,3.7,3.7S3,4.8,3,5.5V13c0,0.3,0.1,0.7,0.2,1s0.3,0.6,0.5,0.8C4,15,4.2,15.2,4.5,15.3
			c0.3,0.1,0.6,0.2,1,0.2h0.8c0.2,0,0.4-0.1,0.6-0.2c0.2-0.2,0.2-0.4,0.2-0.6c0-0.2-0.1-0.4-0.2-0.6C6.8,13.9,6.6,13.8,6.3,13.8z"/>
	</g>
</g>
</svg>
